<?xml version="1.0" encoding="UTF-8" standalone="no"?>
<!-- Created with Inkscape (http://www.inkscape.org/) -->

<svg
   xmlns:dc="http://purl.org/dc/elements/1.1/"
   xmlns:cc="http://creativecommons.org/ns#"
   xmlns:rdf="http://www.w3.org/1999/02/22-rdf-syntax-ns#"
   xmlns:svg="http://www.w3.org/2000/svg"
   xmlns="http://www.w3.org/2000/svg"
   xmlns:sodipodi="http://sodipodi.sourceforge.net/DTD/sodipodi-0.dtd"
   xmlns:inkscape="http://www.inkscape.org/namespaces/inkscape"
   version="1.1"
   id="svg2"
   xml:space="preserve"
   width="1600"
   height="1600"
   viewBox="0 0 1600 1600"
   sodipodi:docname="icon_bg.svg"
   inkscape:version="0.92.0 r"
   inkscape:export-filename="/home/nyx/dev/uni/fp-gpsbase/assets/icon_bg.png"
   inkscape:export-xdpi="96"
   inkscape:export-ydpi="96"><metadata
     id="metadata8"><rdf:RDF><cc:Work
         rdf:about=""><dc:format>image/svg+xml</dc:format><dc:type
           rdf:resource="http://purl.org/dc/dcmitype/StillImage" /><dc:title /></cc:Work></rdf:RDF></metadata><defs
     id="defs6"><clipPath
       clipPathUnits="userSpaceOnUse"
       id="clipPath18"><path
         d="M 0,1200 H 1200 V 0 H 0 Z"
         id="path16"
         inkscape:connector-curvature="0" /></clipPath><filter
       height="1.3897099"
       id="filter3348"
       width="1.36136"
       x="-0.18068001"
       y="-0.19485"><feGaussianBlur
         stdDeviation="5.09979"
         id="feGaussianBlur10" /></filter><filter
       height="1.3897099"
       id="filter3348-3"
       width="1.36136"
       x="-0.18068001"
       y="-0.19485"><feGaussianBlur
         stdDeviation="5.09979"
         id="feGaussianBlur10-6" /></filter><filter
       height="1.3897099"
       id="filter3348-33"
       width="1.36136"
       x="-0.18068001"
       y="-0.19485"><feGaussianBlur
         stdDeviation="5.09979"
         id="feGaussianBlur10-7" /></filter><filter
       height="1.3897099"
       id="filter3348-39"
       width="1.36136"
       x="-0.18068001"
       y="-0.19485"><feGaussianBlur
         stdDeviation="5.09979"
         id="feGaussianBlur10-3" /></filter><linearGradient
       gradientTransform="translate(207.9697,170.1807)"
       y2="-60.432301"
       x2="-57.433701"
       y1="-41.769798"
       x1="-57.433701"
       gradientUnits="userSpaceOnUse"
       id="SVGID_22_"><stop
         id="stop307"
         style="stop-color:#FFFFFF"
         offset="0" /><stop
         id="stop309"
         style="stop-color:#A7A9AC"
         offset="1" /></linearGradient><linearGradient
       gradientTransform="translate(207.9697,170.1807)"
       y2="-30.2605"
       x2="34.389"
       y1="-30.2605"
       x1="-6.2255998"
       gradientUnits="userSpaceOnUse"
       id="SVGID_23_"><stop
         id="stop314"
         style="stop-color:#58595B"
         offset="6.989247e-002" /><stop
         id="stop316"
         style="stop-color:#FFFFFF"
         offset="0.3602" /><stop
         id="stop318"
         style="stop-color:#58595B"
         offset="1" /></linearGradient><linearGradient
       gradientTransform="translate(207.9697,170.1807)"
       y2="-41.461601"
       x2="33.063"
       y1="-41.461601"
       x1="-4.8997002"
       gradientUnits="userSpaceOnUse"
       id="SVGID_24_"><stop
         id="stop323"
         style="stop-color:#58595B"
         offset="6.989247e-002" /><stop
         id="stop325"
         style="stop-color:#FFFFFF"
         offset="0.3871" /><stop
         id="stop327"
         style="stop-color:#58595B"
         offset="0.9731" /></linearGradient><linearGradient
       gradientTransform="translate(207.9697,170.1807)"
       y2="-52.353298"
       x2="24.4816"
       y1="-52.353298"
       x1="1.4907"
       gradientUnits="userSpaceOnUse"
       id="SVGID_25_"><stop
         id="stop332"
         style="stop-color:#BCBEC0"
         offset="6.989247e-002" /><stop
         id="stop334"
         style="stop-color:#FFFFFF"
         offset="0.3871" /><stop
         id="stop336"
         style="stop-color:#BCBEC0"
         offset="0.9731" /></linearGradient><radialGradient
       gradientUnits="userSpaceOnUse"
       gradientTransform="translate(207.9697,170.1807)"
       r="6.3488002"
       cy="-58.514198"
       cx="12.5327"
       id="SVGID_26_"><stop
         id="stop341"
         style="stop-color:#A7A9AC"
         offset="6.989247e-002" /><stop
         id="stop343"
         style="stop-color:#FFFFFF"
         offset="0.457" /><stop
         id="stop345"
         style="stop-color:#A7A9AC"
         offset="1" /></radialGradient><linearGradient
       gradientTransform="translate(207.9697,170.1807)"
       y2="-40.8102"
       x2="71.584297"
       y1="-60.006199"
       x1="71.584297"
       gradientUnits="userSpaceOnUse"
       id="SVGID_27_"><stop
         id="stop350"
         style="stop-color:#FFFFFF"
         offset="0" /><stop
         id="stop352"
         style="stop-color:#A7A9AC"
         offset="1" /></linearGradient><linearGradient
       gradientTransform="matrix(-1,0,0,1,690.455,170.1807)"
       y2="-60.432301"
       x2="40.991001"
       y1="-41.769798"
       x1="40.991001"
       gradientUnits="userSpaceOnUse"
       id="SVGID_28_"><stop
         id="stop361"
         style="stop-color:#FFFFFF"
         offset="0" /><stop
         id="stop363"
         style="stop-color:#A7A9AC"
         offset="1" /></linearGradient><linearGradient
       gradientTransform="matrix(-1,0,0,1,690.455,170.1807)"
       y2="-30.2605"
       x2="132.8136"
       y1="-30.2605"
       x1="92.199097"
       gradientUnits="userSpaceOnUse"
       id="SVGID_29_"><stop
         id="stop368"
         style="stop-color:#58595B"
         offset="6.989247e-002" /><stop
         id="stop370"
         style="stop-color:#FFFFFF"
         offset="0.3602" /><stop
         id="stop372"
         style="stop-color:#58595B"
         offset="1" /></linearGradient><linearGradient
       gradientTransform="matrix(-1,0,0,1,690.455,170.1807)"
       y2="-41.461601"
       x2="131.4877"
       y1="-41.461601"
       x1="93.525002"
       gradientUnits="userSpaceOnUse"
       id="SVGID_30_"><stop
         id="stop377"
         style="stop-color:#58595B"
         offset="6.989247e-002" /><stop
         id="stop379"
         style="stop-color:#FFFFFF"
         offset="0.3871" /><stop
         id="stop381"
         style="stop-color:#58595B"
         offset="0.9731" /></linearGradient><linearGradient
       gradientTransform="matrix(-1,0,0,1,690.455,170.1807)"
       y2="-52.353298"
       x2="122.9063"
       y1="-52.353298"
       x1="99.915398"
       gradientUnits="userSpaceOnUse"
       id="SVGID_31_"><stop
         id="stop386"
         style="stop-color:#BCBEC0"
         offset="6.989247e-002" /><stop
         id="stop388"
         style="stop-color:#FFFFFF"
         offset="0.3871" /><stop
         id="stop390"
         style="stop-color:#BCBEC0"
         offset="0.9731" /></linearGradient><radialGradient
       gradientUnits="userSpaceOnUse"
       gradientTransform="matrix(-1,0,0,1,690.455,170.1807)"
       r="6.3488002"
       cy="-58.514198"
       cx="110.9574"
       id="SVGID_32_"><stop
         id="stop395"
         style="stop-color:#A7A9AC"
         offset="6.989247e-002" /><stop
         id="stop397"
         style="stop-color:#FFFFFF"
         offset="0.457" /><stop
         id="stop399"
         style="stop-color:#A7A9AC"
         offset="1" /></radialGradient><linearGradient
       gradientTransform="matrix(-1,0,0,1,690.455,170.1807)"
       y2="-40.8102"
       x2="170.009"
       y1="-60.006199"
       x1="170.009"
       gradientUnits="userSpaceOnUse"
       id="SVGID_33_"><stop
         id="stop404"
         style="stop-color:#FFFFFF"
         offset="0" /><stop
         id="stop406"
         style="stop-color:#A7A9AC"
         offset="1" /></linearGradient><radialGradient
       gradientUnits="userSpaceOnUse"
       gradientTransform="translate(207.9697,170.1807)"
       r="45.170601"
       cy="130.7594"
       cx="192.0303"
       id="SVGID_34_"><stop
         id="stop425"
         style="stop-color:#FFFFFF"
         offset="0" /><stop
         id="stop427"
         style="stop-color:#000000"
         offset="1" /></radialGradient><radialGradient
       gradientUnits="userSpaceOnUse"
       gradientTransform="translate(207.9697,170.1807)"
       r="35.767101"
       cy="130.7594"
       cx="192.0303"
       id="SVGID_35_"><stop
         id="stop432"
         style="stop-color:#BE1E2D"
         offset="0" /><stop
         id="stop434"
         style="stop-color:#BC1E2D"
         offset="0.3953" /><stop
         id="stop436"
         style="stop-color:#B51D2B"
         offset="0.5377" /><stop
         id="stop438"
         style="stop-color:#AA1B28"
         offset="0.6393" /><stop
         id="stop440"
         style="stop-color:#991824"
         offset="0.7214" /><stop
         id="stop442"
         style="stop-color:#83151F"
         offset="0.7917" /><stop
         id="stop444"
         style="stop-color:#671018"
         offset="0.854" /><stop
         id="stop446"
         style="stop-color:#470B11"
         offset="0.9104" /><stop
         id="stop448"
         style="stop-color:#230508"
         offset="0.9604" /><stop
         id="stop450"
         style="stop-color:#000000"
         offset="1" /></radialGradient><radialGradient
       gradientUnits="userSpaceOnUse"
       gradientTransform="translate(207.9697,170.1807)"
       r="27.753"
       cy="130.7594"
       cx="192.0303"
       id="SVGID_36_"><stop
         id="stop455"
         style="stop-color:#BE1E2D"
         offset="0" /><stop
         id="stop457"
         style="stop-color:#B01E2C"
         offset="0.1392" /><stop
         id="stop459"
         style="stop-color:#8A1E29"
         offset="0.4034" /><stop
         id="stop461"
         style="stop-color:#4F1F24"
         offset="0.7616" /><stop
         id="stop463"
         style="stop-color:#231F20"
         offset="1" /></radialGradient><radialGradient
       gradientUnits="userSpaceOnUse"
       gradientTransform="matrix(1,0,0,1.6154,207.9697,89.916)"
       r="10.9667"
       cy="130.4334"
       cx="181.0999"
       id="SVGID_37_"><stop
         id="stop468"
         style="stop-color:#FFFFFF;stop-opacity:0.3"
         offset="0" /><stop
         id="stop470"
         style="stop-color:#CEFFFF;stop-opacity:0"
         offset="0.7204" /></radialGradient><linearGradient
       y2="189.53999"
       x2="399.99869"
       y1="148.78999"
       x1="399.99869"
       gradientUnits="userSpaceOnUse"
       id="SVGID_38_"
       gradientTransform="matrix(0.75000002,0,0,-0.75000002,-719.49155,1117.8051)"><stop
         id="stop481"
         style="stop-color:#231F20"
         offset="0" /><stop
         id="stop483"
         style="stop-color:#000000"
         offset="0.5" /><stop
         id="stop485"
         style="stop-color:#231F20"
         offset="1" /></linearGradient><linearGradient
       id="linearGradient1013"
       gradientUnits="userSpaceOnUse"
       x1="399.99869"
       y1="148.78999"
       x2="399.99869"
       y2="189.53999"><stop
         offset="0"
         style="stop-color:#231F20"
         id="stop1007" /><stop
         offset="0.5"
         style="stop-color:#000000"
         id="stop1009" /><stop
         offset="1"
         style="stop-color:#231F20"
         id="stop1011" /></linearGradient></defs><sodipodi:namedview
     pagecolor="#ffffff"
     bordercolor="#666666"
     borderopacity="1"
     objecttolerance="10"
     gridtolerance="10"
     guidetolerance="10"
     inkscape:pageopacity="0"
     inkscape:pageshadow="2"
     inkscape:window-width="1920"
     inkscape:window-height="1021"
     id="namedview4"
     showgrid="false"
     inkscape:zoom="0.2085965"
     inkscape:cx="-905.80595"
     inkscape:cy="615.84772"
     inkscape:window-x="1080"
     inkscape:window-y="840"
     inkscape:window-maximized="1"
     inkscape:current-layer="g12" /><g
     id="g10"
     inkscape:groupmode="layer"
     inkscape:label="pointer-1915457"
     transform="matrix(1.3333333,0,0,-1.3333333,0,1600)"><g
       id="g12"><rect
         style="fill:#f0ad4e;fill-opacity:1;stroke-width:0.94413787"
         id="rect5164"
         width="1142.4727"
         height="1142.4727"
         x="28.763687"
         y="-1171.2363"
         transform="scale(1,-1)"
         ry="132.14598" /><g
         id="g5143"
         transform="matrix(1.1589571,0,0,1.1589571,-79.297887,-79.14873)"><g
           style="fill:#0275d8;fill-opacity:1"
           id="g20"
           transform="translate(586.1286,506.6329)"><path
             d="m 0,0 c -126.042,0 -228.219,102.564 -228.219,229.082 0,126.519 102.177,229.083 228.219,229.083 126.042,0 228.219,-102.564 228.219,-229.083 C 228.219,102.564 126.042,0 0,0 m 316.871,236.297 c 0,175.666 -141.868,318.07 -316.871,318.07 -175.003,0 -316.871,-142.404 -316.871,-318.07 0,-49.327 11.192,-96.027 31.161,-137.69 l -0.001,0.001 0.002,-0.002 c 7.082,-14.777 15.278,-28.913 24.461,-42.315 L 0,-395.633 272.181,73.411 c 1.139,1.914 2.255,3.842 3.355,5.782 l 0.003,0.006 v 0 c 7.867,13.876 14.742,28.392 20.49,43.472 13.452,35.29 20.842,73.589 20.842,113.626"
             style="fill:#0275d8;fill-opacity:1;fill-rule:nonzero;stroke:none"
             id="path22"
             inkscape:connector-curvature="0" /></g><g
           style="fill:#0275d8;fill-opacity:1"
           transform="matrix(0.90329219,0,0,0.90329219,963.3927,-145.86943)"
           id="g601"><g
             style="fill:#0275d8;fill-opacity:1"
             id="g357"
             transform="matrix(0.75000002,0,0,-0.75000002,-719.49155,1117.8051)"><linearGradient
               id="linearGradient849"
               gradientUnits="userSpaceOnUse"
               x1="-57.433701"
               y1="-41.769798"
               x2="-57.433701"
               y2="-60.432301"
               gradientTransform="translate(207.9697,170.1807)"><stop
                 offset="0"
                 style="stop-color:#FFFFFF"
                 id="stop845" /><stop
                 offset="1"
                 style="stop-color:#A7A9AC"
                 id="stop847" /></linearGradient><path
               d="m 89.2,123.9 c 0,0 5.7,0.4 4.8,3.1 0,0 62.6,-2.2 101,3.5 l 16.8,-3.3 v -13 l -43.7,-1.8 z"
               id="path312"
               style="fill:#0275d8;fill-opacity:1"
               inkscape:connector-curvature="0" /><linearGradient
               id="linearGradient858"
               gradientUnits="userSpaceOnUse"
               x1="-6.2255998"
               y1="-30.2605"
               x2="34.389"
               y2="-30.2605"
               gradientTransform="translate(207.9697,170.1807)"><stop
                 offset="6.989247e-002"
                 style="stop-color:#58595B"
                 id="stop852" /><stop
                 offset="0.3602"
                 style="stop-color:#FFFFFF"
                 id="stop854" /><stop
                 offset="1"
                 style="stop-color:#58595B"
                 id="stop856" /></linearGradient><rect
               x="201.7"
               y="130.60001"
               width="40.599998"
               height="18.700001"
               id="rect321"
               style="fill:#0275d8;fill-opacity:1" /><linearGradient
               id="linearGradient867"
               gradientUnits="userSpaceOnUse"
               x1="-4.8997002"
               y1="-41.461601"
               x2="33.063"
               y2="-41.461601"
               gradientTransform="translate(207.9697,170.1807)"><stop
                 offset="6.989247e-002"
                 style="stop-color:#58595B"
                 id="stop861" /><stop
                 offset="0.3871"
                 style="stop-color:#FFFFFF"
                 id="stop863" /><stop
                 offset="0.9731"
                 style="stop-color:#58595B"
                 id="stop865" /></linearGradient><polygon
               points="205,126.9 239.1,126.9 241,130.6 203.1,130.6 "
               id="polygon330"
               style="fill:#0275d8;fill-opacity:1" /><linearGradient
               id="linearGradient876"
               gradientUnits="userSpaceOnUse"
               x1="1.4907"
               y1="-52.353298"
               x2="24.4816"
               y2="-52.353298"
               gradientTransform="translate(207.9697,170.1807)"><stop
                 offset="6.989247e-002"
                 style="stop-color:#BCBEC0"
                 id="stop870" /><stop
                 offset="0.3871"
                 style="stop-color:#FFFFFF"
                 id="stop872" /><stop
                 offset="0.9731"
                 style="stop-color:#BCBEC0"
                 id="stop874" /></linearGradient><polygon
               points="210.5,127 209.5,119.3 209.7,118.4 211.7,110.7 212.2,108.7 229.7,108.7 230.2,110.7 232.2,118.4 232.5,119.3 231.4,127 "
               id="polygon339"
               style="fill:#0275d8;fill-opacity:1" /><radialGradient
               id="radialGradient885"
               cx="12.5327"
               cy="-58.514198"
               r="6.3488002"
               gradientTransform="translate(207.9697,170.1807)"
               gradientUnits="userSpaceOnUse"><stop
                 offset="6.989247e-002"
                 style="stop-color:#A7A9AC"
                 id="stop879" /><stop
                 offset="0.457"
                 style="stop-color:#FFFFFF"
                 id="stop881" /><stop
                 offset="1"
                 style="stop-color:#A7A9AC"
                 id="stop883" /></radialGradient><path
               d="m 228.5,108.7 h -15 c 2,-1.8 4.6,-2.8 7.5,-2.8 2.8,0 5.5,1 7.5,2.8 z"
               id="path348"
               style="fill:#0275d8;fill-opacity:1"
               inkscape:connector-curvature="0" /><linearGradient
               id="linearGradient892"
               gradientUnits="userSpaceOnUse"
               x1="71.584297"
               y1="-60.006199"
               x2="71.584297"
               y2="-40.8102"
               gradientTransform="translate(207.9697,170.1807)"><stop
                 offset="0"
                 style="stop-color:#FFFFFF"
                 id="stop888" /><stop
                 offset="1"
                 style="stop-color:#A7A9AC"
                 id="stop890" /></linearGradient><path
               d="m 230.3,112.3 2,4.6 23.9,-3.6 c 0,0 78.4,0 87.6,-4.6 l -9.2,4.6 c 0,0 -81.9,9.6 -101.4,18.4 0,0 -1.1,-1.9 -5.3,-4.5 0,0 -4.8,-6.2 -11.1,-4.4 -6.3,1.8 13.5,-10.5 13.5,-10.5 z"
               id="path355"
               style="fill:#0275d8;fill-opacity:1"
               inkscape:connector-curvature="0" /></g><path
             d="m -264.46654,993.1551 c -1.575,-3 -4.8,-4.725 -8.25,-4.5 -3,0.15 -7.425,0.225 -11.925,0 -0.825,-0.075 -1.65,-0.075 -2.475,-0.15 -4.2,-0.375 -8.25,-1.05 -10.875,-2.4 -1.125,-0.6 -2.025,-1.275 -2.55,-2.175 -2.025,-3.45 -9.825,-4.875 -16.875,-5.4 -1.35,-0.075 -2.625,-0.15 -3.825,-0.225 -5.1,-0.225 -9.15,0 -9.15,0 0,0 -8.7,0.825 -10.725,-2.55 -0.3,-0.525 -0.45,-1.2 -0.45,-1.95 v -13.2 c 0,0 1.35,-12.6 5.55,-20.925 2.25,-4.5 3.75,-16.65001 4.575,-27.07501 h -10.275 c -0.375,4.65 -0.75,7.725 -1.125,8.4 0,0 -2.25,14.55001 -6.825,21.52501 -4.575,6.975 -5.175,21.975 -5.175,21.975 h -12.9 c 0,0 -3.15,1.95 -2.4,5.025 l -2.7,1.95 c 0,0 -6.975,-27.15 -11.85,-26.55 l -0.45,-1.5 -34.35,-0.45 -34.35,0.45 -0.45,1.5 c -4.875,-0.6 -11.85,26.55 -11.85,26.55 l -2.7,-1.95 c 0.75,-3 -2.475,-5.025 -2.475,-5.025 h -12.9 c 0,0 -0.6,-15 -5.175,-21.975 -4.575,-6.975 -6.825,-21.52501 -6.825,-21.52501 -0.375,-0.6 -0.75,-3.75 -1.125,-8.4 h -10.275 c 0.825,10.35 2.25,22.57501 4.575,27.07501 4.275,8.325 5.55,20.925 5.55,20.925 v 13.2 c 0.075,0.75 -0.075,1.425 -0.45,1.95 -2.025,3.45 -10.725,2.55 -10.725,2.55 0,0 -3.975,-0.15 -9.15,0 -1.275,0.075 -2.55,0.15 -3.825,0.225 -7.125,0.525 -14.92501,1.95 -16.95001,5.4 -0.525,0.825 -1.35,1.575 -2.475,2.175 -2.625,1.35 -6.6,2.1 -10.875,2.4 -0.825,0.075 -1.65,0.15 -2.55,0.15 -4.5,0.225 -8.925,0.15 -11.925,0 -3.375,-0.15 -6.6,1.5 -8.175,4.5 -1.875,3.675 -0.45,7.05 1.35,9.45 1.275,1.725 3.15,2.85 5.25,3.3 0.45,0.075 0.9,0.15 1.425,0.225 0,0 3.3,0.15 3.3,0.15 5.025,0.225 10.05,0.525 15.075,0.75 8.775,0.45 17.02501,2.025 25.72501,3.75 13.05,2.475 26.025,5.025 39.075,7.5 6.15,1.2 12.525,2.025 18.525,3.75 6.225,1.8 12.225,4.2 18.525,5.55 9.6,2.1 19.425,3 29.25,2.7 10.275,-0.3 20.4,-1.95 30.45,-4.275 6.825,-1.575 13.5,-3.825 20.25,-5.775 6.75,-2.025 13.5,-3 20.4,-4.275 15.675,-2.625 31.575,-7.5 47.325,-8.625 7.575,-0.525 15.225,-0.675 22.875,-1.125 l 3.3,-0.15 c 0.45,0 0.975,-0.075 1.425,-0.225 2.1,-0.45 3.975,-1.575 5.25,-3.3 1.725,-2.325 3.225,-5.7 1.35,-9.375 z"
             id="path359"
             inkscape:connector-curvature="0"
             style="fill:#0275d8;fill-opacity:1;stroke-width:0.75" /><g
             style="fill:#0275d8;fill-opacity:1"
             id="g411"
             transform="matrix(0.75000002,0,0,-0.75000002,-719.49155,1117.8051)"><linearGradient
               id="linearGradient901"
               gradientUnits="userSpaceOnUse"
               x1="40.991001"
               y1="-41.769798"
               x2="40.991001"
               y2="-60.432301"
               gradientTransform="matrix(-1,0,0,1,690.455,170.1807)"><stop
                 offset="0"
                 style="stop-color:#FFFFFF"
                 id="stop897" /><stop
                 offset="1"
                 style="stop-color:#A7A9AC"
                 id="stop899" /></linearGradient><path
               d="m 710.8,123.9 c 0,0 -5.7,0.4 -4.8,3.1 0,0 -62.6,-2.2 -101,3.5 l -16.8,-3.3 v -13 l 43.7,-1.8 z"
               id="path366"
               style="fill:#0275d8;fill-opacity:1"
               inkscape:connector-curvature="0" /><linearGradient
               id="linearGradient910"
               gradientUnits="userSpaceOnUse"
               x1="92.199097"
               y1="-30.2605"
               x2="132.8136"
               y2="-30.2605"
               gradientTransform="matrix(-1,0,0,1,690.455,170.1807)"><stop
                 offset="6.989247e-002"
                 style="stop-color:#58595B"
                 id="stop904" /><stop
                 offset="0.3602"
                 style="stop-color:#FFFFFF"
                 id="stop906" /><stop
                 offset="1"
                 style="stop-color:#58595B"
                 id="stop908" /></linearGradient><rect
               x="557.59998"
               y="130.60001"
               width="40.599998"
               height="18.700001"
               id="rect375"
               style="fill:#0275d8;fill-opacity:1" /><linearGradient
               id="linearGradient919"
               gradientUnits="userSpaceOnUse"
               x1="93.525002"
               y1="-41.461601"
               x2="131.4877"
               y2="-41.461601"
               gradientTransform="matrix(-1,0,0,1,690.455,170.1807)"><stop
                 offset="6.989247e-002"
                 style="stop-color:#58595B"
                 id="stop913" /><stop
                 offset="0.3871"
                 style="stop-color:#FFFFFF"
                 id="stop915" /><stop
                 offset="0.9731"
                 style="stop-color:#58595B"
                 id="stop917" /></linearGradient><polygon
               points="595,126.9 560.9,126.9 559,130.6 596.9,130.6 "
               id="polygon384"
               style="fill:#0275d8;fill-opacity:1" /><linearGradient
               id="linearGradient928"
               gradientUnits="userSpaceOnUse"
               x1="99.915398"
               y1="-52.353298"
               x2="122.9063"
               y2="-52.353298"
               gradientTransform="matrix(-1,0,0,1,690.455,170.1807)"><stop
                 offset="6.989247e-002"
                 style="stop-color:#BCBEC0"
                 id="stop922" /><stop
                 offset="0.3871"
                 style="stop-color:#FFFFFF"
                 id="stop924" /><stop
                 offset="0.9731"
                 style="stop-color:#BCBEC0"
                 id="stop926" /></linearGradient><polygon
               points="589.5,127 590.5,119.3 590.3,118.4 588.3,110.7 587.8,108.7 570.3,108.7 569.8,110.7 567.8,118.4 567.5,119.3 568.6,127 "
               id="polygon393"
               style="fill:#0275d8;fill-opacity:1" /><radialGradient
               id="radialGradient937"
               cx="110.9574"
               cy="-58.514198"
               r="6.3488002"
               gradientTransform="matrix(-1,0,0,1,690.455,170.1807)"
               gradientUnits="userSpaceOnUse"><stop
                 offset="6.989247e-002"
                 style="stop-color:#A7A9AC"
                 id="stop931" /><stop
                 offset="0.457"
                 style="stop-color:#FFFFFF"
                 id="stop933" /><stop
                 offset="1"
                 style="stop-color:#A7A9AC"
                 id="stop935" /></radialGradient><path
               d="m 571.5,108.7 h 15 c -2,-1.8 -4.6,-2.8 -7.5,-2.8 -2.8,0 -5.5,1 -7.5,2.8 z"
               id="path402"
               style="fill:#0275d8;fill-opacity:1"
               inkscape:connector-curvature="0" /><linearGradient
               id="linearGradient944"
               gradientUnits="userSpaceOnUse"
               x1="170.009"
               y1="-60.006199"
               x2="170.009"
               y2="-40.8102"
               gradientTransform="matrix(-1,0,0,1,690.455,170.1807)"><stop
                 offset="0"
                 style="stop-color:#FFFFFF"
                 id="stop940" /><stop
                 offset="1"
                 style="stop-color:#A7A9AC"
                 id="stop942" /></linearGradient><path
               d="m 569.7,112.3 -2,4.6 -23.9,-3.6 c 0,0 -78.4,0 -87.6,-4.6 l 9.2,4.6 c 0,0 81.9,9.6 101.4,18.4 0,0 1.1,-1.9 5.3,-4.5 0,0 4.8,-6.2 11.1,-4.4 6.5,2 -13.5,-10.5 -13.5,-10.5 z"
               id="path409"
               style="fill:#0275d8;fill-opacity:1"
               inkscape:connector-curvature="0" /></g><rect
             x="-508.29153"
             y="-912.53009"
             width="12.450001"
             height="4.2750001"
             id="rect477"
             transform="scale(1,-1)"
             style="fill:#0275d8;fill-opacity:1;stroke-width:0.75" /><rect
             x="-343.06656"
             y="-912.53009"
             width="12.450001"
             height="4.2750001"
             id="rect479"
             transform="scale(1,-1)"
             style="fill:#0275d8;fill-opacity:1;stroke-width:0.75" /><path
             d="m -264.46654,993.1551 c -1.575,-3 -4.8,-4.725 -8.25,-4.5 -3,0.15 -7.425,0.225 -11.925,0 -0.825,-0.075 -1.65,-0.075 -2.475,-0.15 -4.2,-0.375 -8.25,-1.05 -10.875,-2.4 -1.125,-0.6 -2.025,-1.275 -2.55,-2.175 -2.025,-3.45 -9.825,-4.875 -16.875,-5.4 -1.35,-0.075 -2.625,-0.15 -3.825,-0.225 -5.1,-0.225 -9.15,0 -9.15,0 0,0 -8.7,0.825 -10.725,-2.55 h -156.75 c -2.025,3.45 -10.725,2.55 -10.725,2.55 0,0 -3.975,-0.15 -9.15,0 -1.275,0.075 -2.55,0.15 -3.825,0.225 -7.125,0.525 -14.92501,1.95 -16.95001,5.4 -0.525,0.825 -1.35,1.575 -2.475,2.175 -2.625,1.35 -6.6,2.1 -10.875,2.4 -0.825,0.075 -1.65,0.15 -2.55,0.15 -4.5,0.225 -8.925,0.15 -11.925,0 -3.375,-0.15 -6.6,1.5 -8.175,4.5 -1.875,3.675 -0.45,7.05 1.35,9.45 1.275,1.725 3.15,2.85 5.25,3.3 0.45,0.075 0.9,0.15 1.425,0.225 l 3.3,0.15 h 287.47501 l 3.3,-0.15 c 0.45,0 0.975,-0.075 1.425,-0.225 2.1,-0.45 3.975,-1.575 5.25,-3.3 1.65,-2.4 3.15,-5.775 1.275,-9.45 z"
             id="path488"
             style="fill:#0275d8;fill-opacity:1;stroke-width:0.75"
             inkscape:connector-curvature="0" /></g></g></g></g></svg>